Diabetes Health Indicators - EDA: Diabetes Health Indicators
…
# 5. Check missingness per column
missing_counts <- diab %>%
  summarise(across(everything(), ~ sum(is.na(.)))) %>%
  pivot_longer(
    cols      = everything(),
    names_to  = "variable",
    values_to = "missing"
  )
print(missing_counts)

# A tibble: 22 × 2
   variable             missing
   <chr>                  <int>
 1 Diabetes_012               0
 2 HighBP                     0
 3 HighChol                   0
 4 CholCheck                  0
 5 BMI                        0
 6 Smoker                     0
 7 Stroke                     0
 8 HeartDiseaseorAttack       0
 9 PhysActivity               0
10 Fruits                     0
# ℹ 12 more rows
…
